<?xml version="1.0" encoding="UTF-8" standalone="no"?>
<!-- Created with Inkscape (http://www.inkscape.org/) -->

<svg
   xmlns:dc="http://purl.org/dc/elements/1.1/"
   xmlns:cc="http://creativecommons.org/ns#"
   xmlns:rdf="http://www.w3.org/1999/02/22-rdf-syntax-ns#"
   xmlns:svg="http://www.w3.org/2000/svg"
   xmlns="http://www.w3.org/2000/svg"
   xmlns:sodipodi="http://sodipodi.sourceforge.net/DTD/sodipodi-0.dtd"
   xmlns:inkscape="http://www.inkscape.org/namespaces/inkscape"
   width="1280"
   height="768"
   id="svg2"
   version="1.1"
   inkscape:version="0.48.4 r9939"
   sodipodi:docname="Room3.svg"
   inkscape:export-filename="C:\Users\Joseph\Documents\Visual Studio 2012\Projects\GameHackDays2013\GameHackDays2013\GameHackDays2013Content\Room3.png"
   inkscape:export-xdpi="90"
   inkscape:export-ydpi="90">
  <defs
     id="defs4" />
  <sodipodi:namedview
     id="base"
     pagecolor="#ffffff"
     bordercolor="#666666"
     borderopacity="1.0"
     inkscape:pageopacity="0.0"
     inkscape:pageshadow="2"
     inkscape:zoom="0.63"
     inkscape:cx="506.70538"
     inkscape:cy="417.4359"
     inkscape:document-units="px"
     inkscape:current-layer="layer1"
     showgrid="false"
     showguides="true"
     inkscape:guide-bbox="true"
     inkscape:window-width="1280"
     inkscape:window-height="737"
     inkscape:window-x="-8"
     inkscape:window-y="-8"
     inkscape:window-maximized="1">
    <sodipodi:guide
       orientation="1,0"
       position="0,526.98413"
       id="guide2989" />
    <inkscape:grid
       type="xygrid"
       id="grid2991"
       empspacing="5"
       visible="true"
       enabled="true"
       snapvisiblegridlinesonly="true" />
    <sodipodi:guide
       orientation="1,0"
       position="1279.3651,671.42857"
       id="guide2993" />
    <sodipodi:guide
       orientation="0,1"
       position="238.09524,768.25397"
       id="guide2995" />
    <sodipodi:guide
       orientation="0,1"
       position="285.71429,-1.5873016"
       id="guide2997" />
    <sodipodi:guide
       orientation="1,0"
       position="639.68254,314.28571"
       id="guide3001" />
    <sodipodi:guide
       orientation="0,1"
       position="107.93651,384.12698"
       id="guide3003" />
  </sodipodi:namedview>
  <metadata
     id="metadata7">
    <rdf:RDF>
      <cc:Work
         rdf:about="">
        <dc:format>image/svg+xml</dc:format>
        <dc:type
           rdf:resource="http://purl.org/dc/dcmitype/StillImage" />
        <dc:title></dc:title>
      </cc:Work>
    </rdf:RDF>
  </metadata>
  <g
     inkscape:label="Layer 1"
     inkscape:groupmode="layer"
     id="layer1"
     transform="translate(0,-284.36217)">
    <rect
       style="fill:#374548;stroke:#000000;stroke-width:2;stroke-miterlimit:4;stroke-opacity:1;stroke-dasharray:none"
       id="rect4026"
       width="1279.3651"
       height="385.71429"
       x="0"
       y="383.87302"
       transform="translate(0,284.36217)"
       ry="3.6425781e-006" />
    <rect
       style="fill:#aaccff;stroke:#000000;stroke-width:1.92015934000000010;stroke-miterlimit:4;stroke-opacity:1;stroke-dasharray:none"
       id="rect4028"
       width="1279.405"
       height="384.16693"
       x="-0.03992033"
       y="284.06827"
       ry="3.3573476e-006" />
  </g>
  <g
     inkscape:groupmode="layer"
     id="layer5"
     inkscape:label="Bed">
    <rect
       style="fill:#eeffaa;stroke:#000000;stroke-width:2;stroke-miterlimit:4;stroke-opacity:1;stroke-dasharray:none"
       id="rect4031"
       width="839.6825"
       height="222.22223"
       x="0"
       y="314.03174"
       ry="3.3573476e-006" />
    <rect
       style="fill:#eeffaa;stroke:#000000;stroke-width:2;stroke-miterlimit:4;stroke-opacity:1;stroke-dasharray:none"
       id="rect4033"
       width="31.746031"
       height="98.412697"
       x="826.98413"
       y="507.68253"
       ry="3.3573476e-006" />
    <rect
       style="fill:#c87137;stroke:#000000;stroke-width:2;stroke-miterlimit:4;stroke-opacity:1;stroke-dasharray:none"
       id="rect4035"
       width="26.984127"
       height="88.888893"
       x="825.39685"
       y="294.98413"
       ry="3.3573476e-006" />
    <rect
       ry="3.3573476e-006"
       y="314.03174"
       x="0"
       height="222.22223"
       width="839.6825"
       id="rect4037"
       style="fill:#eeffaa;stroke:#000000;stroke-width:2;stroke-miterlimit:4;stroke-opacity:1;stroke-dasharray:none" />
    <rect
       ry="3.3573476e-006"
       y="507.68253"
       x="826.98413"
       height="98.412697"
       width="31.746031"
       id="rect4039"
       style="fill:#eeffaa;stroke:#000000;stroke-width:2;stroke-miterlimit:4;stroke-opacity:1;stroke-dasharray:none" />
    <rect
       ry="3.3573476e-006"
       y="499.74603"
       x="-0.73016357"
       height="98.412697"
       width="31.746031"
       id="rect4039-0"
       style="fill:#eeffaa;stroke:#000000;stroke-width:2;stroke-miterlimit:4;stroke-opacity:1;stroke-dasharray:none" />
    <rect
       ry="3.3573476e-006"
       y="293.42859"
       x="0.69843292"
       height="98.412697"
       width="31.746031"
       id="rect4039-0-6"
       style="fill:#c87137;stroke:#000000;stroke-width:2;stroke-miterlimit:4;stroke-opacity:1;stroke-dasharray:none" />
    <rect
       style="fill:#eeffaa;stroke:#000000;stroke-width:2;stroke-miterlimit:4;stroke-opacity:1;stroke-dasharray:none"
       id="rect4079"
       width="839.6825"
       height="222.22223"
       x="0"
       y="314.03174"
       ry="3.3573476e-006" />
    <rect
       style="fill:#c87137;stroke:#000000;stroke-width:2;stroke-miterlimit:4;stroke-opacity:1;stroke-dasharray:none"
       id="rect4081"
       width="31.746031"
       height="98.412697"
       x="826.98413"
       y="507.68253"
       ry="3.3573476e-006" />
    <rect
       style="fill:#c87137;stroke:#000000;stroke-width:2;stroke-miterlimit:4;stroke-opacity:1;stroke-dasharray:none"
       id="rect4083"
       width="31.746031"
       height="98.412697"
       x="-0.73016357"
       y="499.74603"
       ry="3.3573476e-006" />
    <rect
       style="fill:#241f1c;stroke:#000000;stroke-width:2;stroke-miterlimit:4;stroke-opacity:1;stroke-dasharray:none"
       id="rect4085"
       width="219.04752"
       height="296.82559"
       x="893.65076"
       y="87.047623"
       ry="3.3573476e-006" />
    <rect
       style="fill:#c87137;stroke:#000000;stroke-width:2;stroke-miterlimit:4;stroke-opacity:1;stroke-dasharray:none"
       id="rect4087"
       width="839.68207"
       height="50.793674"
       x="0"
       y="483.87302"
       ry="0" />
  </g>
</svg>
