<?xml version="1.0" encoding="UTF-8" standalone="no"?>
<!-- Created with Inkscape (http://www.inkscape.org/) -->

<svg
   xmlns:dc="http://purl.org/dc/elements/1.1/"
   xmlns:cc="http://creativecommons.org/ns#"
   xmlns:rdf="http://www.w3.org/1999/02/22-rdf-syntax-ns#"
   xmlns:svg="http://www.w3.org/2000/svg"
   xmlns="http://www.w3.org/2000/svg"
   xmlns:sodipodi="http://sodipodi.sourceforge.net/DTD/sodipodi-0.dtd"
   xmlns:inkscape="http://www.inkscape.org/namespaces/inkscape"
   width="1280"
   height="768"
   id="svg2"
   version="1.1"
   inkscape:version="0.48.4 r9939"
   sodipodi:docname="Room8.svg"
   inkscape:export-filename="C:\Users\Joseph\Documents\Visual Studio 2012\Projects\GameHackDays2013\GameHackDays2013\GameHackDays2013Content\Room8.png"
   inkscape:export-xdpi="90"
   inkscape:export-ydpi="90">
  <defs
     id="defs4">
    <pattern
       inkscape:stockid="Checkerboard"
       id="Checkerboard"
       patternTransform="translate(0,0) scale(10,10)"
       height="2"
       width="2"
       patternUnits="userSpaceOnUse"
       inkscape:collect="always">
      <rect
         id="rect5391"
         height="1"
         width="1"
         y="0"
         x="0"
         style="fill:black;stroke:none" />
      <rect
         id="rect5393"
         height="1"
         width="1"
         y="1"
         x="1"
         style="fill:black;stroke:none" />
    </pattern>
  </defs>
  <sodipodi:namedview
     id="base"
     pagecolor="#ffffff"
     bordercolor="#666666"
     borderopacity="1.0"
     inkscape:pageopacity="0.0"
     inkscape:pageshadow="2"
     inkscape:zoom="0.63"
     inkscape:cx="632.64734"
     inkscape:cy="391.47749"
     inkscape:document-units="px"
     inkscape:current-layer="layer6"
     showgrid="false"
     showguides="true"
     inkscape:guide-bbox="true"
     inkscape:window-width="1280"
     inkscape:window-height="737"
     inkscape:window-x="-8"
     inkscape:window-y="-8"
     inkscape:window-maximized="1">
    <sodipodi:guide
       orientation="1,0"
       position="0,526.98413"
       id="guide2989" />
    <inkscape:grid
       type="xygrid"
       id="grid2991"
       empspacing="5"
       visible="true"
       enabled="true"
       snapvisiblegridlinesonly="true" />
    <sodipodi:guide
       orientation="1,0"
       position="1279.3651,671.42857"
       id="guide2993" />
    <sodipodi:guide
       orientation="0,1"
       position="238.09524,768.25397"
       id="guide2995" />
    <sodipodi:guide
       orientation="0,1"
       position="285.71429,-1.5873016"
       id="guide2997" />
    <sodipodi:guide
       orientation="1,0"
       position="639.68254,314.28571"
       id="guide3001" />
    <sodipodi:guide
       orientation="0,1"
       position="639.68254,387.30159"
       id="guide3003" />
  </sodipodi:namedview>
  <metadata
     id="metadata7">
    <rdf:RDF>
      <cc:Work
         rdf:about="">
        <dc:format>image/svg+xml</dc:format>
        <dc:type
           rdf:resource="http://purl.org/dc/dcmitype/StillImage" />
        <dc:title />
      </cc:Work>
    </rdf:RDF>
  </metadata>
  <g
     inkscape:label="Layer 1"
     inkscape:groupmode="layer"
     id="layer1"
     transform="translate(0,-284.36217)">
    <rect
       style="fill:url(#Checkerboard);stroke:#000000;stroke-width:2;stroke-miterlimit:4;stroke-opacity:1;stroke-dasharray:none;fill-opacity:1.0"
       id="rect4026"
       width="1279.3651"
       height="385.71429"
       x="0"
       y="383.87302"
       transform="translate(0,284.36217)"
       ry="3.6425781e-006" />
    <rect
       style="fill:#cccccc;stroke:#000000;stroke-width:1.92015934000000010;stroke-miterlimit:4;stroke-opacity:1;stroke-dasharray:none;fill-opacity:1"
       id="rect4028"
       width="1279.405"
       height="384.16693"
       x="-0.03992033"
       y="284.06827"
       ry="3.3573476e-006" />
    <rect
       style="fill:#999999;fill-opacity:1;fill-rule:nonzero;stroke:#000000;stroke-width:2;stroke-miterlimit:4;stroke-opacity:1;stroke-dasharray:none"
       id="rect7262"
       width="49.206348"
       height="4.7619047"
       x="423.80951"
       y="163.2381"
       transform="translate(0,284.36217)"
       ry="3.3573476e-006" />
  </g>
  <g
     inkscape:groupmode="layer"
     id="layer6"
     inkscape:label="Oven">
    <g
       id="g7164"
       transform="translate(306.34921,-53.968254)">
      <rect
         ry="3.6425781e-006"
         y="274.34921"
         x="307.93649"
         height="188.88889"
         width="231.74603"
         id="rect7152"
         style="fill:#999999;fill-opacity:1;fill-rule:nonzero;stroke:#000000;stroke-width:2;stroke-miterlimit:4;stroke-opacity:1;stroke-dasharray:none" />
      <rect
         ry="3.6425781e-006"
         y="290.22223"
         x="319.04761"
         height="93.650795"
         width="204.7619"
         id="rect7154"
         style="fill:#b3b3b3;fill-opacity:1;fill-rule:nonzero;stroke:#000000;stroke-width:2;stroke-miterlimit:4;stroke-opacity:1;stroke-dasharray:none" />
      <rect
         ry="2.6811367e-006"
         y="401.19186"
         x="318.90616"
         height="47.90197"
         width="201.87024"
         id="rect7156"
         style="fill:#000000;fill-opacity:1;fill-rule:nonzero;stroke:#000000;stroke-width:1.71707618;stroke-miterlimit:4;stroke-opacity:1;stroke-dasharray:none" />
    </g>
    <rect
       style="fill:#999999;fill-opacity:1;fill-rule:nonzero;stroke:#000000;stroke-width:3.15415001;stroke-miterlimit:4;stroke-opacity:1;stroke-dasharray:none"
       id="rect7152-9"
       width="576.39075"
       height="188.88889"
       x="20.534801"
       y="222.7619"
       ry="3.6425781e-006" />
    <rect
       style="fill:#b3b3b3;fill-opacity:1;fill-rule:nonzero;stroke:#000000;stroke-width:3.15415001;stroke-miterlimit:4;stroke-opacity:1;stroke-dasharray:none"
       id="rect7154-7"
       width="137.84819"
       height="142.06349"
       x="48.169983"
       y="238.63492"
       ry="3.6425781e-006" />
    <rect
       style="fill:#b3b3b3;fill-opacity:1;fill-rule:nonzero;stroke:#000000;stroke-width:3.15415001;stroke-miterlimit:4;stroke-opacity:1;stroke-dasharray:none"
       id="rect7154-7-8"
       width="137.84819"
       height="142.06349"
       x="189.80606"
       y="238.2381"
       ry="3.6425781e-006" />
    <rect
       style="fill:#999999;fill-opacity:1;fill-rule:nonzero;stroke:#000000;stroke-width:2;stroke-miterlimit:4;stroke-opacity:1;stroke-dasharray:none"
       id="rect7219"
       width="22.222221"
       height="11.111111"
       x="153.96825"
       y="304.50793"
       ry="3.6425781e-006" />
    <rect
       style="fill:#999999;fill-opacity:1;fill-rule:nonzero;stroke:#000000;stroke-width:2;stroke-miterlimit:4;stroke-opacity:1;stroke-dasharray:none"
       id="rect7221"
       width="19.047619"
       height="9.5238094"
       x="200"
       y="307.68253"
       ry="3.6425781e-006" />
    <rect
       style="fill:#b3b3b3;fill-opacity:1;fill-rule:nonzero;stroke:#000000;stroke-width:2.9060955;stroke-miterlimit:4;stroke-opacity:1;stroke-dasharray:none"
       id="rect7154-7-4"
       width="116.85336"
       height="142.26479"
       x="349.31891"
       y="237.51076"
       ry="3.6477393e-006" />
    <rect
       style="fill:#b3b3b3;fill-opacity:1;fill-rule:nonzero;stroke:#000000;stroke-width:2.9060955;stroke-miterlimit:4;stroke-opacity:1;stroke-dasharray:none"
       id="rect7154-7-8-6"
       width="116.85336"
       height="142.26479"
       x="469.38327"
       y="237.11337"
       ry="3.6477393e-006" />
    <rect
       style="fill:#999999;fill-opacity:1;fill-rule:nonzero;stroke:#000000;stroke-width:1.84271228;stroke-miterlimit:4;stroke-opacity:1;stroke-dasharray:none"
       id="rect7219-3"
       width="18.837688"
       height="11.126854"
       x="439.00369"
       y="303.47711"
       ry="3.6477393e-006" />
    <rect
       style="fill:#999999;fill-opacity:1;fill-rule:nonzero;stroke:#000000;stroke-width:1.84271228;stroke-miterlimit:4;stroke-opacity:1;stroke-dasharray:none"
       id="rect7221-1"
       width="16.146589"
       height="9.5373039"
       x="478.02463"
       y="306.65619"
       ry="3.6477393e-006" />
    <rect
       style="fill:#999999;fill-opacity:1;fill-rule:nonzero;stroke:#000000;stroke-width:2;stroke-miterlimit:4;stroke-opacity:1;stroke-dasharray:none"
       id="rect7255"
       width="182.53969"
       height="6.3492064"
       x="384.12698"
       y="214.03175"
       ry="3.6425781e-006" />
    <rect
       style="fill:#999999;fill-opacity:1;fill-rule:nonzero;stroke:#000000;stroke-width:2;stroke-miterlimit:4;stroke-opacity:1;stroke-dasharray:none"
       id="rect7260"
       width="6.3492064"
       height="44.444443"
       x="466.66666"
       y="164.82539"
       ry="3.6425781e-006" />
  </g>
  <g
     inkscape:groupmode="layer"
     id="layer5"
     inkscape:label="Bed">
    <rect
       style="fill:#241f1c;stroke:#000000;stroke-width:2;stroke-miterlimit:4;stroke-opacity:1;stroke-dasharray:none"
       id="rect4085"
       width="219.04752"
       height="296.82559"
       x="893.65076"
       y="87.047623"
       ry="3.3573476e-006" />
  </g>
</svg>
